[
    {
        "name": "John Smith",
        "totalSales": 250,
        "salesPeriod": 10,
        "experienceMultiplier": 0.5
    },
    {
        "name": "David Prowless",
        "totalSales": 250,
        "salesPeriod": 10,
        "experienceMultiplier": 0.5
    }
]